<?xml version="1.0" encoding="utf-8"?>
<!-- Generator: Adobe Illustrator 23.0.3, SVG Export Plug-In . SVG Version: 6.00 Build 0)  -->
<svg version="1.1" xmlns="http://www.w3.org/2000/svg" xmlns:xlink="http://www.w3.org/1999/xlink" x="0px" y="0px"
	 viewBox="0 0 52 52" style="enable-background:new 0 0 52 52;" xml:space="preserve">
<style type="text/css">
	.st0{display:none;}
	.st1{display:inline;}
	.st2{fill:#FFFFFF;}
	.st3{fill:#32357C;}
	.st4{fill:#2F3376;}
	.st5{fill:#12729A;stroke:#2F3376;stroke-width:2;stroke-linecap:round;}
	.st6{fill:#2C3170;}
	.st7{fill:#2A2F6B;}
</style>
<g id="Capa_1" class="st0">
	<g class="st1">
		<path class="st2" d="M24.5,49.5c-0.3,0-0.5-0.2-0.5-0.5V1c0-0.3,0.2-0.5,0.5-0.5h3C27.8,0.5,28,0.7,28,1v48c0,0.3-0.2,0.5-0.5,0.5
			H24.5z"/>
		<path class="st3" d="M27.5,1v48h-3V1H27.5 M27.5,0h-3c-0.6,0-1,0.4-1,1v48c0,0.6,0.4,1,1,1h3c0.6,0,1-0.4,1-1V1
			C28.5,0.4,28.1,0,27.5,0L27.5,0z"/>
	</g>
	<g class="st1">
		<path class="st2" d="M12,51.5c-0.3,0-0.5-0.2-0.5-0.5v-3c0-0.3,0.2-0.5,0.5-0.5h28c0.3,0,0.5,0.2,0.5,0.5v3c0,0.3-0.2,0.5-0.5,0.5
			H12z"/>
		<path class="st3" d="M40,48v3H12v-3H40 M40,47H12c-0.6,0-1,0.4-1,1v3c0,0.6,0.4,1,1,1h28c0.6,0,1-0.4,1-1v-3
			C41,47.4,40.6,47,40,47L40,47z"/>
	</g>
	<g class="st1">
		<rect x="2" y="5" class="st2" width="48" height="18"/>
		<path class="st3" d="M49,6v16H3V6H49 M50,4H2C1.4,4,1,4.5,1,5v18c0,0.6,0.4,1,1,1h48c0.6,0,1-0.4,1-1V5C51,4.5,50.6,4,50,4L50,4z"
			/>
	</g>
	<g class="st1">
		<path class="st3" d="M7.6,16.6l-0.7-1.3h0H5.9v1.3H4.7v-4.7h2.1c0.6,0,1.1,0.1,1.5,0.4c0.3,0.3,0.5,0.7,0.5,1.2
			c0,0.4-0.1,0.7-0.2,0.9C8.4,14.7,8.2,14.9,8,15l1,1.5H7.6z M5.9,14.3h0.9c0.3,0,0.4-0.1,0.6-0.2c0.1-0.1,0.2-0.3,0.2-0.5
			c0-0.2-0.1-0.4-0.2-0.5c-0.1-0.1-0.3-0.2-0.6-0.2H5.9V14.3z"/>
		<path class="st3" d="M9.6,11.9h3.7v1h-2.5v0.9h2.3v1l-2.3,0v0.9h2.6v1H9.6V11.9z"/>
		<path class="st3" d="M16.6,12.9c-0.3-0.1-0.5-0.1-0.7-0.1c-0.2,0-0.3,0-0.4,0.1s-0.1,0.1-0.1,0.2c0,0.1,0,0.2,0.1,0.3
			c0.1,0.1,0.2,0.1,0.3,0.2c0.1,0,0.3,0.1,0.5,0.2c0.3,0.1,0.6,0.2,0.8,0.3c0.2,0.1,0.4,0.2,0.5,0.4c0.2,0.2,0.2,0.5,0.2,0.8
			c0,0.3-0.1,0.6-0.2,0.8c-0.2,0.2-0.4,0.4-0.7,0.5c-0.3,0.1-0.6,0.2-1,0.2c-0.4,0-0.8-0.1-1.2-0.2c-0.4-0.1-0.7-0.3-1-0.6l0.5-1
			c0.2,0.2,0.5,0.4,0.8,0.5c0.3,0.1,0.6,0.2,0.9,0.2c0.2,0,0.3,0,0.4-0.1c0.1-0.1,0.2-0.2,0.2-0.3c0-0.1,0-0.2-0.1-0.3
			c-0.1-0.1-0.2-0.1-0.3-0.2c-0.1,0-0.3-0.1-0.5-0.2c-0.3-0.1-0.6-0.2-0.8-0.3s-0.4-0.2-0.5-0.4c-0.2-0.2-0.2-0.4-0.2-0.7
			c0-0.3,0.1-0.5,0.2-0.8c0.2-0.2,0.4-0.4,0.7-0.5c0.3-0.1,0.6-0.2,1-0.2c0.3,0,0.7,0,1,0.1c0.3,0.1,0.6,0.2,0.9,0.4l-0.5,1
			C17.1,13.1,16.9,13,16.6,12.9z"/>
		<path class="st3" d="M18.5,11.9h3.7v1h-2.5v0.9H22v1l-2.3,0v0.9h2.6v1h-3.8V11.9z"/>
		<path class="st3" d="M25.9,16.6l-0.7-1.3h0h-0.9v1.3h-1.2v-4.7h2.1c0.6,0,1.1,0.1,1.5,0.4c0.3,0.3,0.5,0.7,0.5,1.2
			c0,0.4-0.1,0.7-0.2,0.9c-0.1,0.3-0.4,0.5-0.6,0.6l1,1.5H25.9z M24.3,14.3h0.9c0.3,0,0.4-0.1,0.6-0.2c0.1-0.1,0.2-0.3,0.2-0.5
			c0-0.2-0.1-0.4-0.2-0.5c-0.1-0.1-0.3-0.2-0.6-0.2h-0.9V14.3z"/>
		<path class="st3" d="M27.4,11.9h1.3l1.2,3.4l1.2-3.4h1.3l-1.8,4.7h-1.3L27.4,11.9z"/>
		<path class="st3" d="M35.9,16.6l-0.3-0.8h-2l-0.3,0.8H32l2-4.7h1.3l2,4.7H35.9z M33.9,14.8h1.3l-0.6-1.7L33.9,14.8z"/>
		<path class="st3" d="M41,12.2c0.4,0.2,0.7,0.5,0.9,0.8c0.2,0.4,0.3,0.8,0.3,1.2s-0.1,0.9-0.3,1.2c-0.2,0.4-0.5,0.6-0.9,0.8
			c-0.4,0.2-0.8,0.3-1.3,0.3h-2v-4.7h2C40.2,11.9,40.6,12,41,12.2z M40.4,15.4c0.2-0.1,0.3-0.3,0.4-0.5c0.1-0.2,0.2-0.4,0.2-0.7
			c0-0.3-0.1-0.5-0.2-0.7c-0.1-0.2-0.3-0.4-0.5-0.5s-0.4-0.2-0.7-0.2h-0.8v2.7h0.8C40,15.6,40.2,15.5,40.4,15.4z"/>
		<path class="st3" d="M46.3,12.1c0.4,0.2,0.7,0.5,0.9,0.9c0.2,0.4,0.3,0.8,0.3,1.2c0,0.5-0.1,0.9-0.3,1.3c-0.2,0.4-0.5,0.7-0.9,0.9
			c-0.4,0.2-0.8,0.3-1.3,0.3c-0.5,0-0.9-0.1-1.3-0.3c-0.4-0.2-0.7-0.5-0.9-0.9c-0.2-0.4-0.3-0.8-0.3-1.3c0-0.5,0.1-0.9,0.3-1.2
			c0.2-0.4,0.5-0.7,0.9-0.9c0.4-0.2,0.8-0.3,1.3-0.3C45.5,11.8,45.9,11.9,46.3,12.1z M44.4,13c-0.2,0.1-0.4,0.3-0.5,0.5
			c-0.1,0.2-0.2,0.4-0.2,0.7c0,0.3,0.1,0.5,0.2,0.7c0.1,0.2,0.3,0.4,0.5,0.5c0.2,0.1,0.4,0.2,0.6,0.2c0.2,0,0.4-0.1,0.6-0.2
			c0.2-0.1,0.3-0.3,0.5-0.5c0.1-0.2,0.2-0.5,0.2-0.7c0-0.3-0.1-0.5-0.2-0.7c-0.1-0.2-0.3-0.4-0.5-0.5c-0.2-0.1-0.4-0.2-0.6-0.2
			C44.8,12.8,44.6,12.9,44.4,13z"/>
	</g>
</g>
<g id="Capa_2">
	<g id="Grupo_264" transform="translate(-965.5 -923)">
		<g id="piggy-bank" transform="translate(976 917.885)">
			<g id="Grupo_254" transform="translate(53.61 42.451)">
				<g id="Grupo_253">
					<path id="Trazado_162" class="st4" d="M-22.5-12c-0.4,0-0.7,0.3-0.7,0.7l0,0c0,0.5-0.4,0.8-0.9,0.8c-0.5,0-0.9-0.4-0.9-0.8
						c0-0.4-0.3-0.7-0.7-0.7c-0.4,0-0.7,0.3-0.7,0.7l0,0c0,1.2,1,2.2,2.3,2.2c1.3,0,2.3-1,2.3-2.2C-21.8-11.7-22.1-12-22.5-12z"/>
				</g>
			</g>
			<g id="Grupo_256" transform="translate(0 5.115)">
				<g id="Grupo_255" transform="translate(0 0)">
					<path id="Trazado_163" class="st4" d="M37.6,25.4l-2-0.6c-0.3-0.1-0.5-0.3-0.5-0.5c-0.4-1.2-1-2.4-1.9-3.5
						c-0.4-0.5-0.8-1-1.2-1.4c0.3-1.2,0.4-2.5,0.4-3.7c0-1.7-0.4-2.7-1.1-3c-0.4-0.2-1.5-0.8-7.8,1.9c-0.1,0.1-0.3,0.1-0.4,0.2
						c-0.4-0.1-0.8-0.2-1.3-0.3l-0.2,0c0.5-1.1,0.8-2.2,0.9-3.3c0-0.4-0.3-0.7-0.7-0.7c-0.4,0-0.7,0.3-0.7,0.6
						c-0.1,3.1-2.2,5.8-5.3,6.9c-1.9-0.2-3.8-0.2-5.6,0c-4.2-1.5-6.4-5.9-4.8-9.9s6.2-6,10.5-4.5c1.9,0.7,3.5,2,4.4,3.8
						c0.2,0.3,0.6,0.4,0.9,0.3c0.3-0.2,0.5-0.6,0.3-0.9c-2.4-4.4-8.1-6.2-12.8-4s-6.6,7.7-4.2,12.1c0.8,1.5,2,2.7,3.4,3.6l0,0
						c-0.4,0.1-0.9,0.2-1.3,0.4c-0.4,0.1-0.6,0.5-0.4,0.8C6.4,20,6.8,20.1,7.2,20c3.8-1.2,8-1.2,11.8,0c0.4,0.1,0.8-0.1,0.9-0.4
						c0.1-0.3-0.1-0.7-0.4-0.8c-0.4-0.1-0.9-0.3-1.3-0.4l0,0c1.2-0.7,2.1-1.6,2.9-2.7c0.2,0,0.4,0.1,0.6,0.1
						c0.3,0.1,0.5,0.1,0.7,0.2c0,0,0,0.1,0,0.1c-0.3,1.3-0.3,2.7,0.1,4c0.3,1,1,1.9,1.9,2.5c1,0.7,2.2,1,3.4,1
						c0.8,0,1.5-0.2,2.2-0.5c0.8-0.5,1.4-1.3,1.6-2.2c0.2,0.2,0.4,0.5,0.6,0.7c0.7,0.9,1.3,2,1.7,3.1c0.2,0.7,0.8,1.2,1.4,1.4l2,0.6
						c0.5,0.2,0.9,0.6,0.9,1.1v3.1c0,0.5-0.3,1-0.9,1.1l-3.2,1c-0.5,0.2-0.9,0.5-1.2,0.9c-1.4,2.2-3.4,3.9-5.8,5
						c-0.3,0.1-0.5,0.4-0.6,0.7l-1,5.1c0,0.1-0.2,0.2-0.3,0.2h-3.3c-0.2,0-0.3-0.1-0.3-0.2L21,41.9c-0.1-0.6-0.7-0.9-1.2-0.8
						c-1.4,0.2-2.9,0.3-4.4,0.3c-1.1,0-2.1-0.1-3.2-0.2c-0.6-0.1-1.1,0.3-1.2,0.8l-0.5,2.7c0,0.1-0.2,0.2-0.3,0.2H6.8
						c-0.2,0-0.3-0.1-0.3-0.2l-1-4.8c-0.1-0.3-0.3-0.6-0.6-0.7c-4.5-2.3-6.8-6-6.8-10.9c-0.1-2.3,0.5-4.5,1.7-6.5
						c1.1-1.8,2.7-3.2,4.5-4.2c0.3-0.2,0.5-0.6,0.3-0.9c-0.2-0.3-0.6-0.4-1-0.2l0,0c-3.7,1.9-6.2,5.4-6.8,9.4l0,0
						c-0.1,0-0.1,0-0.2,0c0-0.5-0.1-0.9-0.3-1.3c-0.3-0.9-1.1-1.6-2.1-1.8c-0.7-0.1-1.4,0.2-1.8,0.8c-0.5,0.5-0.6,1.3-0.3,1.9
						c0.4,0.7,1.3,1.2,2.8,1.5c0,0.1-0.1,0.1-0.1,0.2c-0.6,0.8-1.6,1.3-2.6,1.3c-0.4,0-0.7,0.3-0.7,0.7v0c0,0.4,0.3,0.7,0.7,0.7
						c0.1,0,0.1,0,0.2,0c0.9,0,2.2-0.3,3.6-1.9c0.2-0.2,0.4-0.5,0.5-0.8c0.1,0,0.3,0,0.4,0l0,0c0,0.4,0,0.7,0,1.1
						c-0.1,2.6,0.7,5.1,2.1,7.3c1.3,2,3.2,3.6,5.4,4.7l1,4.7c0.2,0.8,0.9,1.3,1.7,1.3h3.3c0.8,0,1.5-0.6,1.7-1.3l0.5-2.4
						c1,0.1,2.1,0.2,3.1,0.2c1.4,0,2.9-0.1,4.3-0.3l0.5,2.5c0.2,0.8,0.9,1.3,1.7,1.3h3.3c0.8,0,1.5-0.6,1.7-1.3l1-5
						c2.6-1.2,4.8-3.1,6.3-5.5c0.1-0.2,0.2-0.3,0.4-0.3l3.2-1c1.1-0.3,1.8-1.3,1.8-2.4v-3.1C39.5,26.7,38.7,25.7,37.6,25.4z
						 M31,17.6c-0.3,2.2-1,4-1.7,4.4c-1.4,0.5-2.9,0.4-4.2-0.5c-1.4-1-1.9-2.8-1.4-5.1l0,0c0.1-0.2,0.2-0.4,0.5-0.6
						c3.5-1.5,5.5-2,6.3-2c0.1,0,0.2,0,0.3,0C31,14.1,31.2,15.4,31,17.6z M-6.6,24.9c-0.1-0.1,0.1-0.4,0.2-0.5
						c0.1-0.2,0.3-0.2,0.4-0.3c0,0,0,0,0.1,0c0.5,0.1,0.9,0.5,1,0.9c0.1,0.2,0.1,0.4,0.1,0.6C-5.7,25.5-6.4,25.2-6.6,24.9z"/>
				</g>
			</g>
			<g id="Grupo_258" transform="translate(28.525 11.843)">
				<g id="Grupo_257">
					<path id="Trazado_164" class="st4" d="M-14.7,3.3V0.9c0.9,0.1,1.2,0.4,1.5,0.4c0.4,0,0.5-0.4,0.5-0.7c0-0.6-1.2-0.8-2-0.8v-0.3
						c0-0.1-0.2-0.3-0.4-0.3c-0.2,0-0.3,0.1-0.4,0.3v0.3C-16.6,0-17.8,0.6-17.8,2c0,1.5,1.2,1.9,2.3,2.3v2.7c-1.3-0.1-1.6-0.9-2-0.9
						c-0.3,0-0.6,0.4-0.6,0.7c0,0.6,1,1.4,2.6,1.4l0,0v0.4c0,0.2,0.2,0.3,0.4,0.3c0.2,0,0.4-0.1,0.4-0.3V8.2
						c1.3-0.1,2.3-1.1,2.2-2.4c0,0,0,0,0,0C-12.5,4.2-13.7,3.7-14.7,3.3z M-15.4,3.1c-0.7-0.2-1.2-0.5-1.2-1.1c0-0.6,0.5-0.9,1.2-1
						V3.1z M-14.8,7V4.6c0.6,0.2,1.1,0.7,1.1,1.3C-13.7,6.5-14.2,7-14.8,7L-14.8,7z"/>
				</g>
			</g>
		</g>
		<line id="Línea_1" class="st5" x1="967.5" y1="971.9" x2="1004.4" y2="971.9"/>
		<line id="Línea_2" class="st5" x1="1007.9" y1="971.9" x2="1015.5" y2="971.9"/>
	</g>
</g>
<g id="Capa_3" class="st0">
	<g id="calendar_1_" transform="translate(1.668)" class="st1">
		<path id="Trazado_145" class="st6" d="M26.5,12H25v-1.5h1.5L26.5,12z M24,12h-1.5v-1.5H24L24,12z"/>
		<path id="Trazado_146" class="st6" d="M46.2,50.6H2.8V18H1.3v34.1h46.4V18h-1.5V50.6z"/>
		<path id="Trazado_147" class="st6" d="M14.5,12l1.2-1.2V2.2L14.5,1h-3.3L10,2.2v8.6l1.2,1.2H14.5z M11.5,2.8l0.3-0.3h2.1l0.3,0.3
			v7.3l-0.3,0.3h-2.1l-0.3-0.3V2.8z"/>
		<path id="Trazado_148" class="st6" d="M37.8,12l1.2-1.2V2.2L37.8,1h-3.3l-1.2,1.2v8.6l1.2,1.2H37.8z M34.7,2.8l0.3-0.3h2.1
			l0.3,0.3v7.3l-0.3,0.3h-2.1l-0.3-0.3L34.7,2.8z"/>
		<path id="Trazado_149" class="st6" d="M40.2,5.7v1.5h5.9v8H2.8v-8h5.9V5.7H1.3v11h46.4v-11H40.2z"/>
		<path id="Trazado_150" class="st6" d="M17,5.7h15v1.5H17V5.7z"/>
		<path id="Trazado_151" class="st6" d="M33.3,20.8L20.9,33.2L15.7,28l-6,6l11.2,11.2l18.5-18.5L33.3,20.8z M11.8,34l3.9-3.9
			l5.2,5.2l12.4-12.4l3.9,3.9L20.9,43.1L11.8,34z"/>
	</g>
</g>
<g id="Capa_4" class="st0">
	<g id="Grupo_265" transform="translate(-960.5 -1230)" class="st1">
		<g id="Grupo_261">
			<g id="credit-card" transform="translate(1003 1222)">
				<path id="Trazado_152" class="st7" d="M5.3,13.4h-43.4c-2,0-3.5,1.6-3.6,3.6v29.9c0,2,1.6,3.5,3.6,3.6H5.3c2,0,3.5-1.6,3.6-3.6
					V17C8.8,15,7.2,13.4,5.3,13.4z M7.1,46.9c0,1-0.8,1.9-1.9,1.9h-43.4c-1,0-1.9-0.8-1.9-1.9V17c0-1,0.8-1.9,1.9-1.9H5.3
					c1,0,1.9,0.8,1.9,1.9L7.1,46.9z"/>
				<path id="Trazado_153" class="st7" d="M-28.2,37.9h-7.6c-0.5,0-0.8,0.4-0.8,0.8s0.4,0.8,0.8,0.8l0,0h7.6c0.5,0,0.8-0.4,0.8-0.8
					S-27.8,37.9-28.2,37.9z"/>
				<path id="Trazado_154" class="st7" d="M-17.3,37.9h-7.6c-0.5,0-0.8,0.4-0.8,0.8s0.4,0.8,0.8,0.8h7.6c0.5,0,0.8-0.4,0.8-0.8
					S-16.8,37.9-17.3,37.9z"/>
				<path id="Trazado_155" class="st7" d="M-35,42.1h-0.8c-0.5,0-0.8,0.4-0.8,0.8c0,0.5,0.4,0.8,0.8,0.8l0,0h0.8
					c0.5,0,0.8-0.4,0.8-0.8C-34.1,42.4-34.5,42.1-35,42.1z"/>
				<path id="Trazado_156" class="st7" d="M-29.9,42.1h-1.7c-0.5,0-0.8,0.4-0.8,0.8c0,0.5,0.4,0.8,0.8,0.8l0,0h1.7
					c0.5,0,0.8-0.4,0.8-0.8C-29.1,42.4-29.4,42.1-29.9,42.1z"/>
				<path id="Trazado_157" class="st7" d="M-25.7,42.1h-0.8c-0.5,0-0.8,0.4-0.8,0.8c0,0.5,0.4,0.8,0.8,0.8h0.8
					c0.5,0,0.8-0.4,0.8-0.8C-24.9,42.4-25.2,42.1-25.7,42.1z"/>
				<path id="Trazado_158" class="st7" d="M-20.7,42.1h-1.7c-0.5,0-0.8,0.4-0.8,0.8c0,0.5,0.4,0.8,0.8,0.8h1.7
					c0.5,0,0.8-0.4,0.8-0.8C-19.8,42.4-20.2,42.1-20.7,42.1z"/>
				<path id="Trazado_159" class="st7" d="M-17.9,42.3c-0.3,0.3-0.3,0.9,0,1.2c0.3,0.3,0.9,0.3,1.2,0c0.3-0.3,0.3-0.9,0-1.2
					C-17,42-17.5,42-17.9,42.3z"/>
				<path id="Trazado_160" class="st7" d="M-1.3,34.5c-1,0-2.1,0.3-2.9,0.8c-2.8-1.6-6.4-0.7-8.1,2.1s-0.7,6.4,2.1,8.1
					c1.8,1.1,4.1,1.1,5.9,0c2.8,1.6,6.4,0.7,8.1-2.1c1.6-2.8,0.7-6.4-2.1-8.1C0.8,34.8-0.2,34.5-1.3,34.5z M-3,40.4
					c0,1.1-0.5,2.2-1.3,3c-1.7-1.6-1.7-4.3-0.1-5.9c0,0,0,0,0.1-0.1C-3.4,38.2-3,39.3-3,40.4z M-11.4,40.4c0-2.3,1.9-4.2,4.2-4.2
					c0.5,0,1,0.1,1.5,0.3c-2,2.2-2,5.6,0,7.8c-0.5,0.2-1,0.3-1.5,0.3C-9.5,44.6-11.4,42.7-11.4,40.4z M-1.3,44.6
					c-0.5,0-1-0.1-1.5-0.3c2-2.2,2-5.6,0-7.8c0.5-0.2,1-0.3,1.5-0.3c2.3,0,4.2,1.9,4.2,4.2S1,44.6-1.3,44.6z"/>
				<path id="Trazado_161" class="st7" d="M-34.8,32h11.4c1,0,1.9-0.9,1.9-1.9v-8c0-1-0.9-1.9-1.9-1.9h-11.4c-1,0-1.9,0.9-1.9,1.9v8
					C-36.6,31.1-35.8,32-34.8,32z M-31.6,26.9H-35v-1.7h3.4V26.9z M-35,30.1v-1.5h3.4v1.5c0,0.1,0,0.1,0,0.2h-3.2
					C-34.9,30.3-35,30.2-35,30.1L-35,30.1z M-23.2,26.9h-3.4v-1.5c0-0.1,0.1-0.2,0.2-0.2h2.9c0.1,0,0.1,0,0.2,0V26.9z M-23.4,30.3
					h-3.2c0-0.1,0-0.1,0-0.2v-1.5h3.4v1.5C-23.2,30.2-23.3,30.3-23.4,30.3C-23.4,30.3-23.4,30.3-23.4,30.3z M-23.4,21.9
					c0.1,0,0.2,0.1,0.2,0.2v1.3c0,0.1-0.1,0.2-0.2,0.2h-2.9c-1,0-1.9,0.9-1.9,1.9v4.6c0,0.1-0.1,0.2-0.2,0.2h-1.3
					c-0.1,0-0.2-0.1-0.2-0.2v-8c0-0.1,0.1-0.2,0.2-0.2L-23.4,21.9z M-34.8,21.9h3.2c0,0.1,0,0.1,0,0.2v1.5H-35v-1.5
					C-35,22-34.9,21.9-34.8,21.9C-34.8,21.9-34.8,21.9-34.8,21.9z"/>
			</g>
		</g>
	</g>
</g>
</svg>
